[gd_scene load_steps=8 format=2]

[ext_resource path="res://script/boxWood.gd" type="Script" id=1]
[ext_resource path="res://img/sprites/crateWood.png" type="Texture" id=2]
[ext_resource path="res://script/destroied.gd" type="Script" id=3]

[sub_resource type="RectangleShape2D" id=1]
extents = Vector2( 14, 14 )

[sub_resource type="RectangleShape2D" id=2]
extents = Vector2( 15.6892, 15.9862 )

[sub_resource type="Animation" id=3]
resource_name = "big_shoot"
length = 0.4
tracks/0/type = "value"
tracks/0/path = NodePath("crateWood:position")
tracks/0/interp = 1
tracks/0/loop_wrap = true
tracks/0/imported = false
tracks/0/enabled = true
tracks/0/keys = {
"times": PoolRealArray( 0, 0.1, 0.2, 0.3, 0.4 ),
"transitions": PoolRealArray( 1, 1, 1, 1, 1 ),
"update": 1,
"values": [ Vector2( 0, 0 ), Vector2( 1, 0 ), Vector2( 0, 1 ), Vector2( -1, -1 ), Vector2( 0, 0 ) ]
}

[sub_resource type="Animation" id=4]
resource_name = "smal_hit"
length = 0.3
tracks/0/type = "value"
tracks/0/path = NodePath("crateWood:rotation_degrees")
tracks/0/interp = 1
tracks/0/loop_wrap = true
tracks/0/imported = false
tracks/0/enabled = true
tracks/0/keys = {
"times": PoolRealArray( 0, 0.1, 0.2, 0.3 ),
"transitions": PoolRealArray( 1, 1, 1, 1 ),
"update": 0,
"values": [ 0.0, 5.0, -5.0, 0.0 ]
}

[node name="boxWood" type="StaticBody2D"]
collision_layer = 4
collision_mask = 0
script = ExtResource( 1 )

[node name="crateWood" type="Sprite" parent="."]
texture = ExtResource( 2 )

[node name="CollisionShape2D" type="CollisionShape2D" parent="."]
shape = SubResource( 1 )

[node name="area_hit" type="Area2D" parent="."]
collision_layer = 64
collision_mask = 0
script = ExtResource( 3 )

[node name="CollisionShape2D" type="CollisionShape2D" parent="area_hit"]
shape = SubResource( 2 )

[node name="anim" type="AnimationPlayer" parent="."]
playback_speed = 2.0
anims/big_shoot = SubResource( 3 )
anims/smal_hit = SubResource( 4 )
